…
    test = map(test, as_tibble))
cv_df = 
  cv_df %>% 
  mutate(
    model_bl = map(train, ~lm(bwt ~ bhead + blength, data = .x)),
    model_lg = map(train, ~lm(bwt ~ gaweeks + blength, data = .x)),
    model_all = map(train, ~lm(bwt ~ bhead * blength * babysex, data = .x))) %>% 
  mutate(
    rmse_bl = map2_dbl(model_bl, test, ~rmse(model = .x, data = .y)),
    rmse_lg = map2_dbl(model_lg, test, ~rmse(model = .x, data = .y)),
    rmse_all = map2_dbl(model_all, test, ~rmse(model = .x, data = .y)))
cv_df
```

    ## # A tibble: 100 × 9
    ##    train    test     .id   model_bl model_lg model_all rmse_bl rmse_lg rmse_all
    ##    <list>   <list>   <chr> <list>   <list>   <list>      <dbl>   <dbl>    <dbl>
    ##  1 <tibble> <tibble> 001   <lm>     <lm>     <lm>         273.    327.     272.
    ##  2 <tibble> <tibble> 002   <lm>     <lm>     <lm>         284.    325.     288.
    ##  3 <tibble> <tibble> 003   <lm>     <lm>     <lm>         300.    358.     303.
    ##  4 <tibble> <tibble> 004   <lm>     <lm>     <lm>         276.    316.     276.
    ##  5 <tibble> <tibble> 005   <lm>     <lm>     <lm>         299.    363.     300.
    ##  6 <tibble> <tibble> 006   <lm>     <lm>     <lm>         278.    314.     278.
    ##  7 <tibble> <tibble> 007   <lm>     <lm>     <lm>         289.    329.     287.
    ##  8 <tibble> <tibble> 008   <lm>     <lm>     <lm>         301.    336.     299.
    ##  9 <tibble> <tibble> 009   <lm>     <lm>     <lm>         279.    333.     278.
    ## 10 <tibble> <tibble> 010   <lm>     <lm>     <lm>         280.    331.     279.
    ## # … with 90 more rows
…
